// Jest Snapshot v1, https://goo.gl/fbAQLP

exports[`Media Item Component matches the previous snapshot 1`] = `
<li
  className="media-item"
>
  <Link
    className="media-item-link"
    to="/media/mediaId1"
  >
    <div
      className="media-item-image"
      style={
        Object {
          "backgroundImage": "url(www.link.com/media1.jpg)",
        }
      }
    />
    <div
      className="media-item-info"
    >
      <p
        className="media-item-title"
      >
        media1 title
      </p>
    </div>
  </Link>
</li>
`;
