{
  "extends": [
  	// default rules recommended by makers of tslint
  	"tslint:latest",
  	// default react/jsx rules recommended by makers of tslint
  	"tslint-react",
    // tslink react-hooks plugin
    "tslint-react-hooks",
  	// tslint port or airbnbb base config only, ES6 and react rules are missing
  	"tslint-config-airbnb"
  ],
  // override default airbnb rules in consitent way with what we did for eslint
  "rules": {
  	// this rule caused errors with Capital letters in import names, even when they were exported that way
  	"import-name": false,
  	// interface-name: this arbitrary style rule required all interface names to begin with I to differentiate them from classes!
  	"interface-name": false,
  	// we don't enfoece jsdocs at all for now
  	"jsdoc-format": false,
  	// jsx-no-multiline-js: this rule prevents multiline js in jsx
  	// there is no equivalent in eslint airbnb react, and it picks up false issues with jss
  	"jsx-no-multiline-js": false,
  	// Checks that self-closing JSX elements have a space before the '/>' part.
  	// the default react config enforces that JSX elements with no children are self-closing, but not this rule that goes with it for readability!
		"jsx-space-before-trailing-slash": true,
		// This rule insists on setting a boolean value for an element prop, instead of assuming true if no value given
		// So id dissalows <Grid item /> and insists on <Grid item={true} />
		// However material UI uses props like this in the grid as opposed to having seperate components for item and container etc.
		// Turn this rule off for convenience and readability
		"jsx-boolean-value": false,
		// The jsx no lambda rule is reasonable in the sense that lambdas within a for-loop are costly, 
		// but they are also the only sensible way of sending a non event parameter to an event handler
		// eg `onClick={() => this.handleClick(id)}`
		// where id is in scope within the jsx
		// see discussion here https://github.com/palantir/tslint-react/issues/96
		"jsx-no-lambda": false,
  	"max-line-length": false,
  	// feel free to use white space for readability and separating logical blocks of code
  	"no-consecutive-blank-lines": false,
    // we remove console.log function altogether on production builds, bur console.logs are allowed in in-progress codebase
    "no-console": false,
  	// tslint does not support alias/absolute path but someone found a workaround
  	// https://github.com/palantir/tslint/issues/3364
  	"no-implicit-dependencies": [true, ["AppSrc"]],
  	"no-parameter-reassignment": false,
  	"no-submodule-imports": false,
  	// this rule requires object properties in alphabetical order.
  	// it may make sense to group them by theme or functionality instead
  	"object-literal-sort-keys": false,
  	// this rule forces else to be on the same line as the closing bracket of preceding if
  	// disabled because it makes difficult to 1) visually identify code blocks 2) put a comment before the else block if needed
  	"one-line": false,
  	"brace-style": [true, "stroustrup", { "allowSingleLine": true }],
    	// this rule requires imports in alphabetical order.
  	// Do try to keep imports tidy but it may make sense to group them by theme or functionality  instead
  	"ordered-imports": false,
  	"radix": false,
  	// variable-name: this rule required variable name to be in lowerCamelCase or UPPER_CASE
  	// however it moaned for each component declared as const starting with a Capital
  	"variable-name": false,
  	// TEMP DISBLE FOR AUTOFIX ONLY! I don't want autofix to mess these up as it tends to !!!
  	"ter-arrow-parens": false,
    "react-hooks-nesting": "error"
  }
}
