{
  "appInfo": {
    "title": "Artists, thinkers & trailblazers",
    "tagline": ""
  },
  "colorMap": {
    "bloomsbury": "#9400D3",
    "surrealism": "#4B0082",
    "jarman": "#FF0000",
    "britten": "#FF7F00",
    "wilde": "#00FF00",
    "cocteau": "#0000FF",
    "other": "#FFFF00"
  },
  "locations": [
   {
      "id": "monksHouse",
      "displayName": "Monks House",
      "searchQuery": "Monks House Sussex",
      "description": "Virginia Woolf's house, Rodmell, Sussex",
      "type": "bloomsbury",
      "latitude": 50.8387,
      "longitude": 0.0165
    },
    {
      "id": "charleston",
      "displayName": "Charleston",
      "searchQuery": "Charleston House Sussex",
      "description": "Vanessa Bell & Duncan Grant's house, Bloomsbury group retreat, Firle, Sussex",
      "type": "bloomsbury",
      "latitude": 50.5031,
      "longitude": 0.0652
    },
    {
      "id": "farleyFarm",
      "displayName": "Farley Farm",
      "searchQuery": "Farley Farm Sussex",
      "description": "Lee Miller's house, Chiddingly, Sussex",
      "type": "surrealism",
      "latitude": 50.8994,
      "longitude": 0.1985
    },
    {
      "id": "sissinghurstCastle",
      "displayName": "Sissinghurst Castle",
      "searchQuery": "Sissinghurst Castle",
      "description": "Vita Sackville-West's house, Sissinghurst, Kent",
      "type": "bloomsbury",
      "latitude": 51.1157,
      "longitude": 0.5815
    },
    {
      "id": "knole",
      "displayName": "Knole",
      "searchQuery": "Knole House Kent",
      "description": "Vita Sackville-West's childhood home, Kent",
      "type": "bloomsbury",
      "latitude": 51.266,
      "longitude": 0.206
    },
    {
      "id": "prospectCottage",
      "displayName": "Prospect Cottage",
      "searchQuery": "Prospect Cottage Dungeness",
      "description": "Derek Jarman's cottage, Dungeness, Kent",
      "type": "jarman",
      "latitude": 50.923016,
      "longitude": 0.97582377
    },
    {
      "id": "redHouse",
      "displayName": "Red House",
      "searchQuery": "Red House Aldeburgh",
      "description": "Benjamin Britten's & Peter Pears' house, Aldeburgh, Suffolk",
      "type": "britten",
      "latitude": 52.0953,
      "longitude": 1.3516
    },
    {
      "id": "readingGaol",
      "displayName": "Reading Gaol",
      "searchQuery": "Reading Jail",
      "description": "Reading Jail, where Oscar Wilde was imprisoned.",
      "type": "wilde",
      "latitude": 51.2723,
      "longitude": 0.5751
    },
    {
      "id": "jeanCocteauMilly",
      "displayName": "Jean Cocteau's house - Milly La Foret",
      "searchQuery": "Cocteau maison",
      "description": "Jean Cocteau's house, Milly La Foret, near Paris.",
      "type": "cocteau",
      "latitude": 48.402308,
      "longitude": 2.4648760
    },
    {
      "id": "jeanCocteauSantoSospir",
      "displayName": "Villa Santo Sospir",
      "searchQuery": "Santo-Sospir",
      "description": "Jean Cocteau's friend's villa, where he painted the walls, Saint Jean Cap Ferrat, near Nice.",
      "type": "cocteau",
      "latitude": 43.676267,
      "longitude": 7.3264844
    },
    {
      "id": "claudeCahunJersey",
      "displayName": "Clause Cahun's House Jersey",
      "searchQuery": "Clause Cahun Jersey",
      "description": "Clause Cahun & Marcel Moore's House, Saint Brelade, Jersey",
      "type": "surrealism",
      "latitude": 49.1841,
      "longitude": 2.2029
    }
  ] 
}
