// Jest Snapshot v1, https://goo.gl/fbAQLP

exports[`Unconnected Tag Cloud Component matches the previous snapshot 1`] = `
<div
  className="tag-cloud"
>
  <ul
    className="tag-list"
  >
    <mock-tag
      key="tagId1"
      tagId="tagId1"
    />
    <mock-tag
      key="tagId2"
      tagId="tagId2"
    />
    <mock-tag
      key="tagId3"
      tagId="tagId3"
    />
  </ul>
</div>
`;
