// Jest Snapshot v1, https://goo.gl/fbAQLP

exports[`LocationDetail Component matches the previous snapshot 1`] = `
<div
  className="location-detail"
>
  <mock-breadcrumb
    breadcrumbs={
      Array [
        Object {
          "link": "/",
          "title": "Location map",
        },
      ]
    }
  />
  <h2
    className="location-detail-title"
  >
    tag1 displayName
  </h2>
  <p
    className="location-detail-description"
  >
    tag1 description
  </p>
  <mock-LocationMediaListLazyLoad
    locationId="tagId1"
  />
</div>
`;
